MATH 246 – Grammar of data wrangling
…
Printing

Stricter subsetting

Printing

tibble
data.frame

Display first 10 rows and all of the columns that fit on the screen will display, along with the type of each column.

flights

# A tibble: 336,776 × 19
    year month   day dep_time sched_dep_time dep_delay arr_time sched_arr_time arr_delay
   <int> <int> <int>    <int>          <int>     <dbl>    <int>          <int>     <dbl>
 1  2013     1     1      517            515         2      830            819        11
 2  2013     1     1      533            529         4      850            830        20
 3  2013     1     1      542            540         2      923            850        33
 4  2013     1     1      544            545        -1     1004           1022       -18
 5  2013     1     1      554            600        -6      812            837       -25
 6  2013     1     1      554            558        -4      740            728        12
 7  2013     1     1      555            600        -5      913            854        19
 8  2013     1     1      557            600        -3      709            723       -14
 9  2013     1     1      557            600        -3      838            846        -8
10  2013     1     1      558            600        -2      753            745         8
# ℹ 336,766 more rows
# ℹ 10 more variables: carrier <chr>, flight <int>, tailnum <chr>, origin <chr>,
#   dest <chr>, air_time <dbl>, distance <dbl>, hour <dbl>, minute <dbl>,
#   time_hour <dttm>
…
Filter for flights to RDU in flights:

1flights |>
2  filter(dest == "RDU")

1

Take the flights data frame, and then,

2

Filter for rows where dest is equal to RDU

# A tibble: 8,163 × 19
    year month   day dep_time sched_dep_time dep_delay arr_time sched_arr_time arr_delay
   <int> <int> <int>    <int>          <int>     <dbl>    <int>          <int>     <dbl>
 1  2013     1     1      800            810       -10      949            955        -6
 2  2013     1     1      832            840        -8     1006           1030       -24
 3  2013     1     1      851            851         0     1032           1036        -4
 4  2013     1     1      917            920        -3     1052           1108       -16
 5  2013     1     1     1024           1030        -6     1204           1215       -11
 6  2013     1     1     1127           1129        -2     1303           1309        -6
 7  2013     1     1     1157           1205        -8     1342           1345        -3
 8  2013     1     1     1240           1235         5     1415           1415         0
 9  2013     1     1     1317           1325        -8     1454           1505       -11
10  2013     1     1     1449           1450        -1     1651           1640        11
# ℹ 8,153 more rows
# ℹ 10 more variables: carrier <chr>, flight <int>, tailnum <chr>, origin <chr>,
#   dest <chr>, air_time <dbl>, distance <dbl>, hour <dbl>, minute <dbl>,
#   time_hour <dttm>
…
The pipe, in action

1flights

1

Take the flights data frame

# A tibble: 336,776 × 19
    year month   day dep_time sched_dep_time dep_delay arr_time sched_arr_time arr_delay
   <int> <int> <int>    <int>          <int>     <dbl>    <int>          <int>     <dbl>
 1  2013     1     1      517            515         2      830            819        11
 2  2013     1     1      533            529         4      850            830        20
 3  2013     1     1      542            540         2      923            850        33
 4  2013     1     1      544            545        -1     1004           1022       -18
 5  2013     1     1      554            600        -6      812            837       -25
 6  2013     1     1      554            558        -4      740            728        12
 7  2013     1     1      555            600        -5      913            854        19
 8  2013     1     1      557            600        -3      709            723       -14
 9  2013     1     1      557            600        -3      838            846        -8
10  2013     1     1      558            600        -2      753            745         8
# ℹ 336,766 more rows
# ℹ 10 more variables: carrier <chr>, flight <int>, tailnum <chr>, origin <chr>,
#   dest <chr>, air_time <dbl>, distance <dbl>, hour <dbl>, minute <dbl>,
#   time_hour <dttm>

The pipe, in action

1flights |>
2  filter(dest == "RDU")

1

Take the flights data frame,

2

and then filter for flights going to RDU

# A tibble: 8,163 × 19
    year month   day dep_time sched_dep_time dep_delay arr_time sched_arr_time arr_delay
   <int> <int> <int>    <int>          <int>     <dbl>    <int>          <int>     <dbl>
 1  2013     1     1      800            810       -10      949            955        -6
 2  2013     1     1      832            840        -8     1006           1030       -24
 3  2013     1     1      851            851         0     1032           1036        -4
 4  2013     1     1      917            920        -3     1052           1108       -16
 5  2013     1     1     1024           1030        -6     1204           1215       -11
 6  2013     1     1     1127           1129        -2     1303           1309        -6
 7  2013     1     1     1157           1205        -8     1342           1345        -3
 8  2013     1     1     1240           1235         5     1415           1415         0
 9  2013     1     1     1317           1325        -8     1454           1505       -11
10  2013     1     1     1449           1450        -1     1651           1640        11
# ℹ 8,153 more rows
# ℹ 10 more variables: carrier <chr>, flight <int>, tailnum <chr>, origin <chr>,
#   dest <chr>, air_time <dbl>, distance <dbl>, hour <dbl>, minute <dbl>,
#   time_hour <dttm>
…
1

Take the flights data frame,

2

and then filter for flights going to RDU,

3

and then group by carrier

# A tibble: 8,163 × 19
# Groups:   carrier [5]
    year month   day dep_time sched_dep_time dep_delay arr_time sched_arr_time arr_delay
   <int> <int> <int>    <int>          <int>     <dbl>    <int>          <int>     <dbl>
 1  2013     1     1      800            810       -10      949            955        -6
 2  2013     1     1      832            840        -8     1006           1030       -24
 3  2013     1     1      851            851         0     1032           1036        -4
 4  2013     1     1      917            920        -3     1052           1108       -16
 5  2013     1     1     1024           1030        -6     1204           1215       -11
 6  2013     1     1     1127           1129        -2     1303           1309        -6
 7  2013     1     1     1157           1205        -8     1342           1345        -3
 8  2013     1     1     1240           1235         5     1415           1415         0
 9  2013     1     1     1317           1325        -8     1454           1505       -11
10  2013     1     1     1449           1450        -1     1651           1640        11
# ℹ 8,153 more rows
# ℹ 10 more variables: carrier <chr>, flight <int>, tailnum <chr>, origin <chr>,
#   dest <chr>, air_time <dbl>, distance <dbl>, hour <dbl>, minute <dbl>,
#   time_hour <dttm>
…
