MATH 246 – Joining data
…
explicitly print more rows with, e.g., df |> print(n = 25)

explicitly select() or relocate() columns

Options for a tibble

Default
print()
select()
relocate()

library(tidyverse)
midwest

# A tibble: 437 × 28
     PID county   state  area poptotal popdensity popwhite popblack popamerindian popasian
   <int> <chr>    <chr> <dbl>    <int>      <dbl>    <int>    <int>         <int>    <int>
 1   561 ADAMS    IL    0.052    66090      1271.    63917     1702            98      249
 2   562 ALEXAND… IL    0.014    10626       759      7054     3496            19       48
 3   563 BOND     IL    0.022    14991       681.    14477      429            35       16
 4   564 BOONE    IL    0.017    30806      1812.    29344      127            46      150
 5   565 BROWN    IL    0.018     5836       324.     5264      547            14        5
 6   566 BUREAU   IL    0.05     35688       714.    35157       50            65      195
 7   567 CALHOUN  IL    0.017     5322       313.     5298        1             8       15
 8   568 CARROLL  IL    0.027    16805       622.    16519      111            30       61
 9   569 CASS     IL    0.024    13437       560.    13384       16             8       23
10   570 CHAMPAI… IL    0.058   173025      2983.   146506    16559           331     8033
# ℹ 427 more rows
# ℹ 18 more variables: popother <int>, percwhite <dbl>, percblack <dbl>,
#   percamerindan <dbl>, percasian <dbl>, percother <dbl>, popadults <int>,
#   perchsd <dbl>, percollege <dbl>, percprof <dbl>, poppovertyknown <int>,
#   percpovertyknown <dbl>, percbelowpoverty <dbl>, percchildbelowpovert <dbl>,
#   percadultpoverty <dbl>, percelderlypoverty <dbl>, inmetro <int>, category <chr>

midwest |>
  print(n = 13)

# A tibble: 437 × 28
     PID county   state  area poptotal popdensity popwhite popblack popamerindian popasian
   <int> <chr>    <chr> <dbl>    <int>      <dbl>    <int>    <int>         <int>    <int>
 1   561 ADAMS    IL    0.052    66090      1271.    63917     1702            98      249
 2   562 ALEXAND… IL    0.014    10626       759      7054     3496            19       48
 3   563 BOND     IL    0.022    14991       681.    14477      429            35       16
 4   564 BOONE    IL    0.017    30806      1812.    29344      127            46      150
 5   565 BROWN    IL    0.018     5836       324.     5264      547            14        5
 6   566 BUREAU   IL    0.05     35688       714.    35157       50            65      195
 7   567 CALHOUN  IL    0.017     5322       313.     5298        1             8       15
 8   568 CARROLL  IL    0.027    16805       622.    16519      111            30       61
 9   569 CASS     IL    0.024    13437       560.    13384       16             8       23
10   570 CHAMPAI… IL    0.058   173025      2983.   146506    16559           331     8033
11   571 CHRISTI… IL    0.042    34418       819.    34176       82            51       89
12   572 CLARK    IL    0.03     15921       531.    15842       10            26       36
13   573 CLAY     IL    0.028    14460       516.    14403        4            17       29
# ℹ 424 more rows
# ℹ 18 more variables: popother <int>, percwhite <dbl>, percblack <dbl>,
#   percamerindan <dbl>, percasian <dbl>, percother <dbl>, popadults <int>,
#   perchsd <dbl>, percollege <dbl>, percprof <dbl>, poppovertyknown <int>,
#   percpovertyknown <dbl>, percbelowpoverty <dbl>, percchildbelowpovert <dbl>,
#   percadultpoverty <dbl>, percelderlypoverty <dbl>, inmetro <int>, category <chr>

midwest |>
  select(county, state, percbelowpoverty, percollege)

# A tibble: 437 × 4
   county    state percbelowpoverty percollege
   <chr>     <chr>            <dbl>      <dbl>
 1 ADAMS     IL               13.2        19.6
 2 ALEXANDER IL               32.2        11.2
 3 BOND      IL               12.1        17.0
 4 BOONE     IL                7.21       17.3
 5 BROWN     IL               13.5        14.5
 6 BUREAU    IL               10.4        18.9
 7 CALHOUN   IL               15.1        11.9
 8 CARROLL   IL               11.7        16.2
 9 CASS      IL               13.9        14.1
10 CHAMPAIGN IL               15.6        41.3
# ℹ 427 more rows

midwest |>
  relocate(county, state, percbelowpoverty, percollege)

# A tibble: 437 × 28
   county    state percbelowpoverty percollege   PID  area poptotal popdensity popwhite
   <chr>     <chr>            <dbl>      <dbl> <int> <dbl>    <int>      <dbl>    <int>
 1 ADAMS     IL               13.2        19.6   561 0.052    66090      1271.    63917
 2 ALEXANDER IL               32.2        11.2   562 0.014    10626       759      7054
 3 BOND      IL               12.1        17.0   563 0.022    14991       681.    14477
 4 BOONE     IL                7.21       17.3   564 0.017    30806      1812.    29344
 5 BROWN     IL               13.5        14.5   565 0.018     5836       324.     5264
 6 BUREAU    IL               10.4        18.9   566 0.05     35688       714.    35157
 7 CALHOUN   IL               15.1        11.9   567 0.017     5322       313.     5298
 8 CARROLL   IL               11.7        16.2   568 0.027    16805       622.    16519
 9 CASS      IL               13.9        14.1   569 0.024    13437       560.    13384
10 CHAMPAIGN IL               15.6        41.3   570 0.058   173025      2983.   146506
# ℹ 427 more rows
# ℹ 19 more variables: popblack <int>, popamerindian <int>, popasian <int>,
#   popother <int>, percwhite <dbl>, percblack <dbl>, percamerindan <dbl>,
#   percasian <dbl>, percother <dbl>, popadults <int>, perchsd <dbl>, percprof <dbl>,
#   poppovertyknown <int>, percpovertyknown <dbl>, percchildbelowpovert <dbl>,
#   percadultpoverty <dbl>, percelderlypoverty <dbl>, inmetro <int>, category <chr>
…
