MATH 246 – Web scraping
…
chronicle

# A tibble: 500 × 6
   title                                           author date       abstract column url  
   <chr>                                           <chr>  <date>     <chr>    <chr>  <chr>
 1 All the world’s a stage                         Anna … 2024-02-22 If we a… STUDE… http…
 2 Words that matter: For Alexei Navalny           Carol… 2024-02-22 In some… STUDE… http…
 3 Which would you save: Friend or romantic partn… Jess … 2024-02-22 Love sh… STUDE… http…
 4 Happiness is not what you’re looking for        Paul … 2024-02-21 We hing… STUDE… http…
 5 Closing Duke's Herbarium: A fear of long-term … Matth… 2024-02-21 Without… LETTE… http…
 6 CS Majors launch 'ambiguous and labelless rela… Monda… 2024-02-20 Unlike … STUDE… http…
 7 The fear of being single                        Heidi… 2024-02-20 But it … STUDE… http…
 8 Save the Duke Herbarium                         Henry… 2024-02-17 The Duk… LETTE… http…
 9 What Duke can learn from retiring ex-president… Rober… 2024-02-17 In Duke… GUEST… http…
10 Love, love                                      Gabri… 2024-02-16 Somehow… STUDE… http…
# ℹ 490 more rows
…
